				xx/xx/2014	xx/xx/2014		xx/xx/2014						xx/xx/2014											

				xx/xx/2014	xx/xx/2014		xx/xx/2014						xx/xx/2014											

Tom	Gleason	Mine	Sgl	xx/xx/2014	xx/xx/2014		xx/xx/2014						xx/xx/2014						Yes	No	Friend	Friend	555-555-5555	555-555-5555

Tom	Gleason	Test	Sgl	xx/xx/2014	xx/xx/2014		xx/xx/2014	United	test1	test2	8 am	10 am	xx/xx/2014	United	test3	test4	9 am	11 am	Yes	No	Joe doe	Friend	555-555-5555	666-666-6666

Sonya	Jeffrey	Ingan Tours	Sgl	03/03/2014	08/03/2014		03/03/2014	QF11	SYDNEY	LOS ANGELES	15:00	09:40	08/03/2014	AA7070 operated by Alaska Airlines	LOS ANGELES	SEATTLE	20:00	22:37	No	Yes	Douglas Jeffrey	Husband	61 7 4068 0189	61 488 458 658																									

Sonya	Jeffrey	Ingan Tours	Sgl	xx/xx/2014	xx/xx/2014		03/03/2014	Qantas Flight 11	SYDNEY	LOS ANGELES	15:00 Terminal 1	09:40 Terminal B	08/03/2014	AA7070 operated by Alaska Airlines	LOS ANGELES	SEATTLE	20:00	22:37	No	Yes	Douglas Jeffrey	Husband	61 7 4068 0189	61 448 067 227																									

IAN	BUTTON	Independent Aviation & Crystalbrook Collection	Sgl	03/05/2014	03/08/2014		03/05/2014	VA7	BNE	LAX	11:30	06:30	03/08/2014	VA	LAX	BNE	11:20	07:30 + 2	Yes	Yes	WENDY BUTTON	WIFE	+617 40322400	+61 417766738																									

Dianna	Upton	One&Only Hayman Island	Sgl	03/05/2014	03/08/2014		xx/xx/2014						xx/xx/2014						Yes	Yes	Earl Upton	Spouse	480-455-2400	480-455-2400																									

Rachel	Hoy	Orpheus	rachel@orpheus.com.au	Sgl	05/03/2014	08/03/2014		xx/xx/2014						03/03/2014	QF93	MEL	LAX	11:20	06:40	No	No	Gaynor Thorpe	Mother	0395617371	+61407028566																									

Rachel	Hoy	Orpheus	rachel@orpheus.com.au	Sgl	05/03/2014	08/03/2014		03/03/2014	QF93	MEL	LAX	11:20	06:40	19/03/2014	QF94	LAX	MEL	23:30	09:20	No	No	Gaynor Thorpe	Mother	+61395617371	+61407028566																									

Shirley	Hamel	Longhorn YOUnique Tours	shirley.hamel@longhorntours.com.au	Sgl	04/03/2014	08/03/2014		04/03/2014	AA1232	San Francisco	LA	07:00	08:25	08/03/2014	QF94	LA	Melbourne	23:30	10:20	No	Yes	Garry Hamel	Husband	+61394390510	+61418328397																									

Sonya	Jeffrey	Ingan Tours	sonya@ingan.com.au	Sgl	03/03/2014	08/03//2014		03/03/2014	QF11	SYDNEY	LOS ANGELES	15:00 Terminal 1	09:40 Terminal B	08/03/2014	AA7070 operated by Alaska Airlines	LOS ANGELES	SEATTLE	20:00	22:37	No	Yes	Douglas Jeffrey	Husband	61 7 4068 0189	61 488 458 658																									

Cathy	Wills	Tourism Barossa	cathy@tourismbarossa.com.au	Dbl	5/3/2014	8/3/2014	Grant Wills - spouse	4/3/2014	 NZ792/NZ2	ADL/Auckland	LAX	11.40am	2.00pm	8/3/2014	tbc UA	LAX	Denver	8pm approx	tbc	No	Yes	Aija Geyer	Mother	+61 8 85233 090	+61 0432 714 541																									

Regina 	Twiss	North Adelaide Heritage Group	regina@adelaideheritage.com	Dbl	05/03/2014	08/03/2014	possibly husband Rodney Twiss TBC	xx/xx/2014						xx/xx/2014						No	No	Rodney Twiss	husband	=61 8 82672020	+61 418832232																									

Regina 	Twiss	North Adelaide Heritage Group	regina@adelaideheritage.com	Dbl	05/03/2014	08/03/2014	possibly husband Rodney Twiss TBC	xx/xx/2014						xx/xx/2014						No	No	Rodney Twiss	husband	=61 8 82672020	+61 418832232																									

Clare	Wilkes	Rawnsley Park Station	clare@sandraleach.co.uk	Sgl	xx/xx/2014	xx/xx/2014		xx/xx/2014						08/03/2014	BA 268	LAX	LHR	20.45	14.55+1	No	Yes	Julie Wilkes	Mother	+441373465335	+447791220727																									

Christina	Beckman	Searoad Ferries	cbeckman@searoad.com.au	Sgl	03/04/2014	03/09/2014		03/04/2014	WestJet	Calgary	LA	1025	1235	03/09/2014	WestJet	LA	Calgary	1.20pm	5.20pm	No	No	Suzanne Loewen	Mother	+14038962273	+13062940010																									

Jane	Hardie	BridgeClimb Sydney	jhardie@bridgeclimb.com	Sgl	03/05/2014	03/09/2014		03/05/2014	TBA					03/09/2014	TBA	LAX		TBA	TBA	No	No	Stephen Goldsmith	Husband	+61414256916	+61414256916																									

Noeleen	Pearson	Experience Perth	ceo@experienceperth.com	Sgl	05/03/2014	09/03/2014		02/03/2014	QF11	SYD	LAX	1500	0930	08/03/2014	QF12	LAX	SYD	2220	0820 Mon	No	Yes	Antoine Musu	Husband	+61419912890	+61419912890																									

Bill	Rogers	Glass on Glasshouse	info@glassonglasshouse.com.au	Dbl	05/03/2014	08/03/2014	Misao Rogers	05/03/2014	Unknown, To Be Confirmed				Unknown, TBC	xx/xx/2014						Yes	No	Edwin Mens	Neighbour	07 54930138	0410 457864																									

Kerri	Anderson	Tourism and Events Queensland	kerri.anderson@queensland.com	Sgl	03/05/2014	03/08/2014		xx/xx/2014						xx/xx/2014						No	No	Jana Czarnecki	Employee	3106953252	7146511135	Kylie	Smith	kylie.smith@queensland.com	Sgl		03/05/2014	03/08/2014															Jana Czarnecki	Employee	3106953252	7146511135

Michelle	Docherty	Crown Perth	michelle.docherty@crownperth.com.au	Sgl	xx/xx/2014	xx/xx/2014		28/02/2014	QF 93	MEL	LAX	11.20	06.40	08/03/2014	QF 94	LAX	MEL	23.30	10.20 (+2 days)	No	Yes	Craig Docherty	Husband	+ 61 0422294868	+ 61 0422294868																									

Adam	Lubicz	Destination NSW	adam.lubicz@dnsw.com.au	Sgl	03/04/2014	03/09/2014		xx/xx/2014						xx/xx/2014						No	No	Laurie Lubicz	Wife	8189436710	8189436710																									

Irene	Morgan	Destination NSW	irene.morgan@dnsw.com.au	Sgl	03/04/2014	03/09/2014		xx/xx/2014						xx/xx/2014						No	No	Mark Morgan	Husband	3103010481	3106998539																									

Amanda 	Ladd	Tourism Northern Territory	amanda@myriadmarketing.com	Sgl	03/05/2014	03/08/2014		xx/xx/2014						xx/xx/2014						No	No	Lorraine Rodda	Mother	8184423552	8184423552	Laura 	Matar	lauram@myriadmarketing.com	Sgl		03/05/2014	03/08/2014															Amanda Ladd	Coworker	8189191793	8189191793

Sonya	Jeffrey	Ingan Tours	sonya@ingan.com.au	Sgl	03/03/2014	08/03/2014		03/08/2014	Qantas Airlines Flight 11	Sydney	Los Angeles	1500hrs	0935hrs	08/03/2014	American Airlines Flight 7070	Los Angeles	Seattle	2000hrs	2237hrs	No	Yes	Douglas Jeffrey	Husband	61448067227	61448067227																									

Ronald (Doc)	Reynolds	WAITOC	execsupport@waitoc.com	Sgl	05/03/2014	08/03/2014		03/03/2014	QF107	Sydney	LAX	11:55am	6:30am	08/03/2014	QF12	LAX	Sydney	10:20pm	08:20am	No	Yes	Margaret Geraghty	Executive assistant	+61419921946	+61419921946																									

Colin	Thwaites	Sydney Princess Cruises/T as Oz Whale Watching	colin@sydneyprincesscruises.com.au	Dbl	05/03/2014	08/03/2014	Sonia McPhee	xx/xx/2014						08/03/2014	American Airlines 2461	LAX	Dallas	18:40	23:30	No	Yes	Sonia McPhee	Wife	61280659902	0405323713																									

Michael	Johnson	Moonlit Sanctuary Wildlife Conservation Park	michael@moonlit-sanctuary.com	Dbl	05/03/2014	08/03/2014	Sue Pascoe-Johnson	05/03/2014	Qantas QF93	Mel	Lax	11:20am	6:40am	xx/xx/2014						Yes	No	Roland Johnson	Father	+3 9807 3457	0407331523																									

Tim	Scarisbrick	Eco Safaris Queensland	tim@ecosafaris.com.au	Sgl	03/05/2014	03/08/2014		03/05/2014	DL6795 - Delta (on a Virgin flight)	BNE	LAX	11:15	06:30	03/08/2014	DL1354 - Delta	LAX	ATL	22:45	06:58	Yes	Yes	Sean Scarisbrick	Brother	716 418 2035	716 418 2035																									

Kenn	Holmes	Currumbin Wildlife Sanctuary	kholmes@cws.org.au	Dbl	03/05/2014	03/08/2014	tba - not in TQ group	03/05/2014	DL2241	Salt lake City	LAX	3.05pm	3.56pm	03/08/2014	VA8	LAX	Brisbane	11.20pm	7.25am	Yes	Yes	Helen Holmes	Wife (Seperated)	+61 401 333 890	+61 401 333 890																									

Glen	Chidlow	Australia's North West Tourism	glen@australiasnorthwest.com	Sgl	05/Mar/2014	08/Mar2014		02/Mar/2014	QF11	SYD	LAX	1500	0935	08Mar/2014	QF12	LAX	SYD	2220	0820	No	Yes	Lynette Chidlow	Wife	+61 8 9192 7309	+61 408 722 168																									

Peter	Johns	Australian Coastal Mountain Tours	peter@acmtours.com.au	Sgl	01/03/2014	08/03/2014		01/03/2014	QF93	Melb	LAX	11.20 am	06.40 am	08/03/2014	DL 4481	LAX	Las Vegas	9.00 PM	10.16 PM	No	Yes	Maree	Wife	61 0 398222576	61 0400263172																									

Peter	Johns	Australian Coastal Mountain Tours	peter@acmtours.com.au	Sgl	01/03/2014	08/03/2014		01/03/2014	QF93	Melb	LAX	11.20 am	06.40 am	08/03/2014	DL 4481	LAX	Las Vegas	9.00 PM	10.16 PM	No	Yes	Maree	Wife	61 0 398222576	61 0400263172																									

David	O'Malley	Australia's Coral Coast	david@australiascoralcoast.com	Sgl	05/03/2014	08/03/2014		02/032014	QF11	Sydney	Los Angeles	1500 	0935	08/03/2014	QF12	Los Angeles	Sydney	2220	0820+2	Yes	Yes	Ms Kelsie Johnston	Partner	61 8 9294 4000	61 8 467 722 892																									

Rob	Michail	Red Diamond Tours	reservations@diamondtours.com.au	Sgl	05/03/2014	08/03/2014		xx/xx/2014					12.00pm	xx/xx/2014						Yes	Yes	Alena Michail	Wife	+61414917317	+6141917317																									

Regina	Twiss	Adelaide Heritage Cottages	regina@adelaideheritage.com	Dbl	05032014	09032014	Rodney Twiss	24022014	Air New Zealand 					13032014	Air new zealand					No	No	Will Twiss	Son	+61 882672020	+61418387746	Rodney	Twiss	regina@adelaideheritage.com																			Will Twiss	Son	+61882672020	+61 418387746

Karen	Stotz	Tourism Tasmania	karen.stotz@tourism.tas.gov.au	Sgl	03/05/2014	03/09/2014		xx/xx/2014						xx/xx/2014						No	No	James Stotz	Spouse	6305308103	6308633466																									

Sandy 	Nerlich	Tourism Western Australia	sandy.nerlich@westernaustralia.com	Sgl	03/05/2014	03/08/2014		xx/xx/2014						xx/xx/2014						No	No	mark nerlich	spouse	8187682303	none																									

Sandy 	Nerlich	Tourism Western Australia	sandy.nerlich@westernaustralia.com	Sgl	03/05/2014	03/08/2014		xx/xx/2014						xx/xx/2014						No	No	mark nerlich	spouse	8187682303	none																									

Jana	Czarnecki	Tourism and Events Queensland	kylie.smith@queensland.com	Sgl	03/07/2014	03/08/2014		xx/xx/2014						xx/xx/2014						No	No	Kylie Smith	Colleague	3108063862	3108063862																									

Leigh 	Arredondo	Tourism Victoria	leigh@awandassociates.com	Sgl	03/5/2014	03/09/2014		xx/xx/2014	Not Applicable					xx/xx/2014	Not Applicable					No	No	Andrew Wigginton	Business Partner	512-773-6241	same																									

Ronald	Reynolds	Waitoc	doc@kepakurl.com.au	Sgl	03/05/2014	03/08/2014		xx/xx/2014	NO TRANSFER REQUIRED					03/08/2014	QF 12	LAX	SYDN	1020PM		No	Yes	sandy nerlich	coworker	8187682303	8188594959																									

Sally 	Cope	Ultimate Winery Experiences Australia	sally.cope@ultimatewineryexperiences.com.au	Sgl	05/03/2014	08/03/2014		05/03/2014	QF107	SYD	LAX	11:55	06:30	08/03/2014	n/a			12:00		Yes	Yes	Graham Cope	Husband	+61 (0) 407 424 060	+61 (0) 407 424 060																									

Michelle	Roennfeldt	Brisbane Marketing	mroennfeldt@brisbanemarketing.com.au	Dbl	05/03/2014	09/03/2014	TBC for Friday & Sat nights only	05/03/2014	VA7	Brisbane	Los Angeles	11:15	06:30	xx/xx/2014	Own arrangements					Yes	No	Ian & Noreen Roennfeldt	Parents	+61 7 32863481	+61 407647818																									

Karen	Fitzgerald	Great Walks of Australia	kfitzgerald@gmail.com	Sgl	05/03/2014	09/03/2014		xx/xx/2014						xx/xx/2014						No	No	John Fitzgerald	Husband	61 (3) 6165 5293	0417 356 441																									

hputlldcrcn	hputlldcrcn	New York	ehuqev@jebqdp.com	Dbl	xx/xx/2014	New York	ZMWLfTWIHyjJzPL	xx/xx/2014	XYD7p	lZffaipxDxcE	iQPWPDKfBifCclg	New York	BavpWGGKH	New York	9IdzM	New York	New York	New York	New York	Yes	No	hputlldcrcn	zNkkNHqusVQSmnqfZ	YjlWcRLpFqTRso	FXYeUHnoJpKFKMQSvWC	hputlldcrcn	hputlldcrcn	ehuqev@jebqdp.com	Sgl	YRYuPjrXzj	sChFDcjVwi	New York	KVctSGhmfEbt	m3GlVo	RVqJZwGhBpvrB	rOnmgLXXgN	New York	VgELGVKCSjnWwwBt	New York	LQmkP	New York	New York	New York	New York	No	No	hputlldcrcn	FnQXCrvswTamlr	CnvkVhmwSTLMYUrudk	eDolATpd

Richard	Doyle	Captain Cook Cruises &SeaLink	richardd@captaincook.com.au	Sgl	15/03/2015	18/032015		12/03/2015	N/A					21/03/2015	QF11	LAX	JFK	0855	1705			Mrs Merryn Doyle	Wife	tba	tba	Anthea	Somerville	antheas@captaincook.com.au	Sgl		15/03/2015	18/03/2015															Dr Rewa Shaw	Daughter	+61412806613	+61412806613

MATTHEW	NOBLE	AUSTRALIAN WINE TOUR CO	info@austwinetourco.com.au	Sgl	18/03//2015	21/03/2015		xx/xx/2015						xx/xx/2015								Merryn Noble	Wife	+61400114345	+61400114345																									

Libby 	Cooke	Antipodal	Libby@antipodal.net	Sgl	03/17/2015	03/22/2015		03/17/2015	Delta 6429	SFO	LAX	10:00am	11:30am	03/22/2015	Air Canada	LAX	YYZ	11:45am	7:24pm			Ian Cooke	husband	8605015531	8605015531																									

Sally	Cope	Ultimate Winery Experiences Australia	sally.cope@ultimatewineryexperiences.com.au	Sgl	03/18/2015	03/21/2015		03/18/2015	QF17	SYD	LAX	17.30	13.05	03/21/2015	QF3245 (AA1586)	LAX	YYZ	09.40	17.29			Graham Cope	Husband	+61407424060	+61407424060																									

Tara	Kuglen	Road scholar 	Tara.kuglen@roadscholar.org	Sgl	03/17/2015	03/22/2015		03/17/2015	Aa	Bos	Lax	9:00	12:43	03/22/2015	Aa	Lax	Bo's	1300	2127			Sally Kuglen	Mother	8582925962	8582925962																									

Richard 	Doyle	Captain Cook Cruises and Sealink	richardd@captaincook.com.au	Sgl	16/03/2015	21/03/2015		16/03/2015	AA2384	LAS	LAX	1555	1707	21/03/2015	QF11	LAX	JFK	0855	1705			Merryn Doyle	Wife	+61418489699	+61418489699	Anthea	Somerville	antheas@captaincook.com.au	Sgl		16/03/2015	16/03/2015															Dr Rewa Shaw	Daughter	+61412816603	+61412816603

PAUL	VAN MIN	SILKY OAKS LODGE	Paul.Vanmin@silkyoaks.com.au	Sgl	0318//2015	03/212015		xx/xx/2015						xx/xx/2015								Barbara VanMin	wife	011 617 4098 1666	011 617 4098 1666																									

Fleur 	Ulbrick	AAT Kings	fleur.ulbrick@aatkings.com.au	Sgl	03/18/2015	03/21/2015		xx/xx/2015						xx/xx/2015								Lindsay Burke	Assistant	61 2 9028 2263	61 422 008 665	Kristina	Hofmann	kristina.hofmann@aatkings.com	Sgl		03/18/2015	03/21/2015															Donnie Hofmann	Husband	7148260355	7142095136

Sebastian	Topet	oceania tours and safaris	info@oceaniatours.com.au	Dbl	03/17/2015	03/21/2015	Andrea Hatcher (also 2 children 9 and 6yo, Lucas and Emily Topet)	03/14/2015	UA99	MEL	LAX	1415hrs	1050hrs	03/28/2015	UA98	LAX	MEL	2235HRS	0825HRS			Andrea Hater	spouse	613 94995139	0411113146																									

Karen	Stotz	Tourism Tasmania	karen.stotz@tourism.tas.gov.au	Sgl	03/18/2015	03/21/2015		03/18/2015	AA1192	ORD	LAX	0805	1043	03/18/2015	AA1169	LAX	ORD	1319	1926			JAMES STOTZ	SPOUSE	630 530 8103	630 863 3466 																									

Karen	Stotz	Tourism Tasmania	karen.stotz@tourism.tas.gov.au	Sgl	03/18/2015	03/21/2015		03/18/2015	AA1192	ORD	LAX	0805	1043	03/21/2015	AA1169	LAX	ORD	1319	1926			JAMES STOTZ	SPOUSE	630 530 8103	630 863 3466 																									

Penelope	Rafferty	Luxury Lodges of Australia	penny@luxurylodgesofaustralia.com.au	Sgl	03/17/2015	03/21/2015		03/17/2015	Delta 6429	SFO	LAX	10.00am	11.30am	03/21/2015	VA2	LAX	SYD	22.00pm	7.30am			Michael Collett	Husband	+61428633408	+61422876695																									

Colin 	Thwaites	Sydney Princess Cruises/Oz Whale Watching	colin@sydneyprincesscruises.com.au	Sgl	17/03/2015	21/03/2015		xx/xx/2015						xx/xx/2015								Sonia McPhee	Wife	61405323713	61405323713																									

Irene	Scholz	Gawler Ranges Wilderness safaris	info@gawlerrangessafaris.com	Dbl	18/03/2015	21/03/2015	Geoff Scholz	18/03/2015	Qantas QF 93	Melbourne	LA	10:55	07:10	21/03/2015	Qantas QF 12	LA	Syd	22:20	07:20			Chloe Scholz	daughter	same as cell	+61 (0) 422993731	Geoff	Scholz	info@gawlerrangessafaris.com																			Chloe Scholz	daughter	same as cell	+61 (0) 422993731

Sheena	Walshaw	Jungle Surfing Canopy Tours	sheena@junglesurfing.com.au	Sgl	16/03/2015	21/03/2015		16/03/2015	QF17	SYD	LAX	1730	1305	21/03/2015	AA1586	LAX	YYZ	0940	1729			Gillian Walshaw	Sister	61 7 3207 2454	61 400 816 757																									

Dianna	Upton	One&Only Hayman Island	dianna.upton@kerzner.com	Sgl	03/18/2015	03/21/2015		03/18/2015	AA#1232	MIA	LAX	7:00AM	9:50 AM	03/20/2015	AA#2318	LAX	MIA	9:55 PM	5:45AM+1			Earl Upton	spouse	480-45-2400	480-455-2400																									

Michelle	Behsman	Thala Beach Nature Reserve	michelle@thalabeach.com.au	Sgl	18/03/2015	21/03/2015		xx/xx/2015	TBC - arriving in from SEA					20/03/2015	VA8	LAX	CNS	2320				Shane Johnston	Partner	0437340323	0437340323																									

Cherie	Glare	The CaPTA Group	events@capta.com.au	Sgl	21/03/2015	22/03/2015		18/03/2015	QF15	BRISBANE	LAX	10.30AM	6.30AM	29/03/15	QF4495	HOUSTON	LAX	20.11	21.55			Richard Sercombe	Partner	0407535266	0407535266																									

Paul	Brown	Kangaroo Island Wilderness Tours	paul@wildernesstours.com.au	Sgl	18 March 2015	21 March 2015		18 March 2015	QF 17	Syd	LA	1730	1305	20 March 2015	QF 12	LA	Syd	2200	0720			Mandy Brown	Wife	61+ 8 85535199	+61437535131																									

Rosalind	Harries	Ocean Freedom & Ocean Free	ros@rhmarketing.com.au	Sgl	18/03/2015	21/03/2015		17/03/2015	QF799	CNS	LAX		05.55	21/03/2015	BA268	LAX	LDN	21.45	1530			Trevor Harries	Husband	+61 7 40544445	+61 (0) 418733121																									

Kate 	Ashman	Coral Princess Cruises	kate@coralprincess.com.au	Sgl	21/03/2015	22/03/2015		13/03/2015	Qantas 	Cairns 	LA	11:50	13:05	22/03/2015	Air Canada 	LA	Toronto 	07:00	14:40			Andy Slater	Partner 	+61447111195	+61447111195																									

Katherine 	Cutler	Deep Sea Divers Den	cutler.katherine@gmail.com	Sgl	18/03/2015	21/03/2015		18/03/2015	Virgin Australia #VA 0007	BNS	LAX	10:15am	6:30am	21/03/15	Virgin Australia #VA 0008	LAX	BNS	11:20pm	6:25am			Darren Turner	Partner	0413474125	0413474125																									

Fiona	Sweetman	Hidden Secrets Tours	fiona@hiddensecretstours.com	Sgl	18/03/15	21/3/15		18/03/2015	Air New Zealand 0006	AUK	LAX	19.15	11:30	xx/xx/2015								Prue Cole	Mother	+61354725054	+61439327077																									

Elizabeth	Webb	Tourism Tropical North Queensland	elizabeth.webb@ttnq.org.au	Sgl	03/18/2015	03/21/2015		03/14/2015	CX146	CNS	LAX	1300hrs	2135hrs	03/28/2015	CX897	LAX	HKG	0935hrs	1615hrs			Denise P Webb	Mother	+61 7 4045 1614	+61 414 785 987																									

Angie	Martin 	Unlisted Collection - The Old Clare Hotel 	angie.martin@theoldclarehotel.com.au	Sgl	03/13/2015	03/22/2015		03/13/2015	va1	syd	lax			03/22/2015	va1	lax	syd					Sally Martin	sister	+61413539963	+61413539963																									

Kylie	Stever	Spicers Retreats	kylie.stever@spicersgroup.com.au	Sgl	16/03/2015	21/03/2015		17/03/2015	Virgin Australia International	Brisbane	LAX	10:15am	06:30am	21/03/2015	American Airlines	LAX	Toronto	09:40am	17:29pm			Cameron Dart	Partner	61 7 55352187	61 410500615																									

Sonya	Mroz	Currumbin Wildlife Sanctuary	smroz@cws.org.au	Sgl	16/3/2015	18/3/2015		16/3/2015	AA2862	Salt Lake City	Los Angeles	15.35	16.32	21/3/2015	AA1586	Los Angeles	Toronto	09.40	17.29			George Mroz	Father	617 3801 4167	+61 408761068																									

Jane	Hardie	BridgeClimb Sydney	jhardie@bridgeclimb.com	Sgl	03/18/2015	03/21/2015		03/18/2015	N/A					03/21/2015	TBA							Stepehen Goldsmith	Husband	+61414256916	+61414256916																									

Odette	Smith	Hamilton Island	osmith@hamiltonisland.com.au	Sgl	03/18/2015	03/21/2015		xx/xx/2015						xx/xx/2015								Graham Smith	Father	+61885282221	+61885282221																									

Christina	Beckman	Searoad Ferries	cbeckman@searoad.com.au	Sgl	18/03/2015	22/03/2015		18/03/2015	WS1422 	YEG	LAX	1035	1304	22/03/2015	AA2424	LAX	DFW	0700	1204			Robert Rolufs	Partner	1-708-607-1687	1-708-607-1687																									

David	Assef	Spicers Retreats	david.assef@spicersretreats.com	Sgl	16/03/2015	21/03/2015		16/03/2015	QF3152	SFO	LA	9.02	10.34	16/032015	QF16	LA	Brisbane	23:50	6:55am			Stephanie Ryan	Partner	0412 426 611	0412 426 611																									

Kathy 	Graham	SEIT Outback Australia 	kathy@seitoutbackaustralia.com.au	Sgl	18/03/2015	22/03/2015		18/03/2015	Alaska Airlines	SEA 	LAX	11.10 	13.47	22/03/2015	American Arlines	LAX	YYZ	9.40	17.30			Brett Graham	Husband 	+61402326729	+61402326729																									

Kathy 	Graham	SEIT Outback Australia 	kathy@seitoutbackaustralia.com.au	Sgl	18/03/2015	22/03/2015		18/03/2015	Alaska Airlines	SEA 	LAX	11.10 	13.47	22/03/2015	American Arlines	LAX	YYZ	9.40	17.30			Brett Graham	Husband 	+61402326729	+61402326729																									

sandy	nerlich	Tourism Western Australia	sandy.nerlich@westernaustralia.com	Sgl	03/18/2015	03/21/2015	NOT APPLICABLE	/2015	I AM HERE LOCALLY					xx/xx/2015								Mark Nerlich	Spouse	8187682303	8182376428																									

Karen	Fitzgerald	Great Walks of Australia	eo@greatwalksofaustralia.com.au	Sgl	03/17/2015	03/21/2015		03/17/2015	QF93	MEL	LAX	10.55	07.10 	03/27/2015	QF4844/QF8	HOU	SYD	16.30	06.05			John Fitzgerald	Husband	+61 3 6225 1876	+61 448899424																									

Trina	Baker	TUSA Dive/ Spirit Of Freedom	trina@spiritoffreedom.com.au	Sgl	18/03/2015	21/03/2015	Trina Baker	1703//2015	QF	CNS	LAX	05.30	06.30	19/03/2015	AA	LAX	DC	09.30	17.00			Phillip Hobbs	Boss	61 419 700136	61 419700136																									

Jennifer	Bruce	TFE Hotels	jbruce@tfehotels.com	Sgl	18/03/2015	21/03/2015		xx/xx/2015						xx/xx/2015								Shaizeen Contractor	Colleague	61 424 084 535	61 424 084 535																									

Paul	Van Min	Silky Oaks Lodge	paul.vanmin@silkyoaks.com.au	Sgl	18/03/2015	21/03/2015		xx/xx/2015						xx/xx/2015								Barbara Van Min	Wife	61 7 4098 1666	61 407093279																									

mary anne	kennedy	a taste of south australia	info@tastesa.com.au	Sgl	18/03/2015	21/03/2015		18/03/2015	qf11	18/03/15	18/03/15	10.45	6.30	24/03/2015	qf 94	24/03/15	26/03/15	22.50	12.00			jo tharaldsen	sister	0882981542	0419861588																									

